…
    ## Parsed with column specification:
    ## cols(
    ##   .default = col_double(),
    ##   week = col_integer(),
    ##   day = col_character()
    ## )

    ## See spec(...) for full column specifications.

``` r
accelero_data
```

    ## # A tibble: 473,760 x 7
    ##    day_id  week day     hour activity    minute activity_value
    ##     <dbl> <int> <fct>  <dbl> <chr>        <dbl>          <dbl>
    ##  1      1     1 Sunday     0 activity.1       1              1
    ##  2      1     1 Sunday     0 activity.2       2              1
    ##  3      1     1 Sunday     0 activity.3       3              1
    ##  4      1     1 Sunday     0 activity.4       4              1
    ##  5      1     1 Sunday     0 activity.5       5              1
    ##  6      1     1 Sunday     0 activity.6       6              1
    ##  7      1     1 Sunday     0 activity.7       7              1
    ##  8      1     1 Sunday     0 activity.8       8              1
    ##  9      1     1 Sunday     0 activity.9       9              1
    ## 10      1     1 Sunday     0 activity.10     10              1
    ## # ... with 473,750 more rows
…
